8 Làm sạch số liệu và các hàm quan trọng | Cẩm nang dịch tễ học với R
…
8.12 Tính toán theo hàng

Nếu bạn muốn thực hiện một phép tính trong một hàng, bạn có thể sử dụng hàm rowwise() từ dplyr. Xem chi tiết tại row-wise calculations.

Ví dụ: code này sử dụng hàm rowwise() và sau đó tạo một cột mới là tổng số cột triệu chứng được chứa giá trị “có”, cho mỗi hàng trong linelist. Các cột được cụ thể trong hàm sum() theo tên trong vectơ c(). Hàm rowwise() về cơ bản là một hình thức group_by() đặc biệt, vì vậy tốt nhất bạn nên sử dụng ungroup() khi bạn hoàn tất (trong chương Nhóm dữ liệu).

linelist %>%
  rowwise() %>%
  mutate(num_symptoms = sum(c(fever, chills, cough, aches, vomit) == "yes")) %>% 
  ungroup() %>% 
  select(fever, chills, cough, aches, vomit, num_symptoms) # for display

## # A tibble: 5,888 × 6
##    fever chills cough aches vomit num_symptoms
##    <chr> <chr>  <chr> <chr> <chr>        <int>
##  1 no    no     yes   no    yes              2
##  2 <NA>  <NA>   <NA>  <NA>  <NA>            NA
##  3 <NA>  <NA>   <NA>  <NA>  <NA>            NA
##  4 no    no     no    no    no               0
##  5 no    no     yes   no    yes              2
##  6 no    no     yes   no    yes              2
##  7 <NA>  <NA>   <NA>  <NA>  <NA>            NA
##  8 no    no     yes   no    yes              2
##  9 no    no     yes   no    yes              2
## 10 no    no     yes   no    no               1
## # ℹ 5,878 more rows
…
Đặt tiêu chí đặc tả cột trong hàm dplyr là c_across(). Điều này là do hàm c_across (tài liệu) được thiết kế để hoạt động cụ thể với hàm rowwise(). Ví dụ, như đoạn code sau:

Áp dụng rowwise() nên bước tiếp theo (sum()) được áp dụng trong mỗi hàng (không tính tổng toàn bộ các cột)

Tạo cột mới num_NA_dates, được xác định cho mỗi hàng là số cột (có tên chứa “ngày tháng”) mà is.na() trả về giá trị TRUE (nghĩa là chúng bị thiếu dữ liệu)

ungroup() để loại bỏ ảnh hưởng của rowwise() cho các bước tiếp theo

linelist %>%
  rowwise() %>%
  mutate(num_NA_dates = sum(is.na(c_across(contains("date"))))) %>% 
  ungroup() %>% 
  select(num_NA_dates, contains("date")) # for display

## # A tibble: 5,888 × 5
##    num_NA_dates date_infection date_onset date_hospitalisation date_outcome
##           <int> <date>         <date>     <date>               <date>      
##  1            1 2014-05-08     2014-05-13 2014-05-15           NA          
##  2            1 NA             2014-05-13 2014-05-14           2014-05-18  
##  3            1 NA             2014-05-16 2014-05-18           2014-05-30  
##  4            1 2014-05-04     2014-05-18 2014-05-20           NA          
##  5            0 2014-05-18     2014-05-21 2014-05-22           2014-05-29  
##  6            0 2014-05-03     2014-05-22 2014-05-23           2014-05-24  
##  7            0 2014-05-22     2014-05-27 2014-05-29           2014-06-01  
##  8            0 2014-05-28     2014-06-02 2014-06-03           2014-06-07  
##  9            1 NA             2014-06-05 2014-06-06           2014-06-18  
## 10            1 NA             2014-06-05 2014-06-07           2014-06-09  
## # ℹ 5,878 more rows

Bạn cũng có thể cung cấp các hàm khác, chẳng hạn như max() để lấy ngày mới nhất hoặc gần đây nhất cho mỗi hàng:

linelist %>%
  rowwise() %>%
  mutate(latest_date = max(c_across(contains("date")), na.rm=T)) %>% 
  ungroup() %>% 
  select(latest_date, contains("date"))  # for display

## # A tibble: 5,888 × 5
##    latest_date date_infection date_onset date_hospitalisation date_outcome
##    <date>      <date>         <date>     <date>               <date>      
##  1 2014-05-15  2014-05-08     2014-05-13 2014-05-15           NA          
##  2 2014-05-18  NA             2014-05-13 2014-05-14           2014-05-18  
##  3 2014-05-30  NA             2014-05-16 2014-05-18           2014-05-30  
##  4 2014-05-20  2014-05-04     2014-05-18 2014-05-20           NA          
##  5 2014-05-29  2014-05-18     2014-05-21 2014-05-22           2014-05-29  
##  6 2014-05-24  2014-05-03     2014-05-22 2014-05-23           2014-05-24  
##  7 2014-06-01  2014-05-22     2014-05-27 2014-05-29           2014-06-01  
##  8 2014-06-07  2014-05-28     2014-06-02 2014-06-03           2014-06-07  
##  9 2014-06-18  NA             2014-06-05 2014-06-06           2014-06-18  
## 10 2014-06-09  NA             2014-06-05 2014-06-07           2014-06-09  
## # ℹ 5,878 more rows
…
