37 Chuỗi lây nhiễm | Cẩm nang dịch tễ học với R
…
Sau khi kiểm tra các đối tượng epicontacts, chúng ta có thể thấy rằng cột case_id trong bộ dữ liệu linelist đã được đổi tên thành id và các cột case_id và cột infector trong liên hệ đã được đổi tên thành from và to. Điều này đảm bảo tính nhất quán trong các hoạt động xử lý, trực quan và phân tích tiếp theo.

## view epicontacts object
epic

## 
## /// Epidemiological Contacts //
## 
##   // class: epicontacts
##   // 5,888 cases in linelist; 3,800 contacts; directed 
## 
##   // linelist
## 
## # A tibble: 5,888 × 30
##    id     generation date_infection date_onset date_hospitalisation date_outcome outcome
##    <chr>       <dbl> <date>         <date>     <date>               <date>       <chr>  
##  1 5fe599          4 2014-05-08     2014-05-13 2014-05-15           NA           <NA>   
##  2 8689b7          4 NA             2014-05-13 2014-05-14           2014-05-18   Recover
##  3 11f8ea          2 NA             2014-05-16 2014-05-18           2014-05-30   Recover
##  4 b8812a          3 2014-05-04     2014-05-18 2014-05-20           NA           <NA>   
##  5 893f25          3 2014-05-18     2014-05-21 2014-05-22           2014-05-29   Recover
##  6 be99c8          3 2014-05-03     2014-05-22 2014-05-23           2014-05-24   Recover
##  7 07e3e8          4 2014-05-22     2014-05-27 2014-05-29           2014-06-01   Recover
##  8 369449          4 2014-05-28     2014-06-02 2014-06-03           2014-06-07   Death  
##  9 f393b4          4 NA             2014-06-05 2014-06-06           2014-06-18   Recover
## 10 1389ca          4 NA             2014-06-05 2014-06-07           2014-06-09   Death  
## # ℹ 5,878 more rows
## # ℹ 23 more variables: gender <chr>, age <dbl>, age_unit <chr>, age_years <dbl>,
## #   age_cat <fct>, age_cat5 <fct>, hospital <chr>, lon <dbl>, lat <dbl>,
## #   infector <chr>, source <chr>, wt_kg <dbl>, ht_cm <dbl>, ct_blood <dbl>,
## #   fever <chr>, chills <chr>, cough <chr>, aches <chr>, vomit <chr>, temp <dbl>,
## #   time_admission <chr>, bmi <dbl>, days_onset_hosp <dbl>
## 
##   // contacts
## 
## # A tibble: 3,800 × 4
##    from   to     location   duration
##    <chr>  <chr>  <chr>         <int>
##  1 f547d6 5fe599 Community         5
##  2 f90f5f b8812a Community         9
##  3 11f8ea 893f25 Nosocomial        1
##  4 aec8ec be99c8 Nosocomial        2
##  5 893f25 07e3e8 Community         3
##  6 133ee7 369449 Community         6
##  7 996f3a 2978ac Community         5
##  8 133ee7 57a565 Nosocomial        6
##  9 37a6f6 fc15ef Nosocomial        4
## 10 9f6884 2eaa9a Nosocomial        5
## # ℹ 3,790 more rows
…
## 
## /// Epidemiological Contacts //
## 
##   // class: epicontacts
##   // 69 cases in linelist; 1,865 contacts; directed 
## 
##   // linelist
## 
## # A tibble: 69 × 30
##    id     generation date_infection date_onset date_hospitalisation date_outcome outcome
##    <chr>       <dbl> <date>         <date>     <date>               <date>       <chr>  
##  1 5fe599          4 2014-05-08     2014-05-13 2014-05-15           NA           <NA>   
##  2 893f25          3 2014-05-18     2014-05-21 2014-05-22           2014-05-29   Recover
##  3 2978ac          4 2014-05-30     2014-06-06 2014-06-08           2014-06-15   Death  
##  4 57a565          4 2014-05-28     2014-06-13 2014-06-15           NA           Death  
##  5 fc15ef          6 2014-06-14     2014-06-16 2014-06-17           2014-07-09   Recover
##  6 99e8fa          7 2014-06-24     2014-06-28 2014-06-29           2014-07-09   Recover
##  7 f327be          6 2014-06-14     2014-07-12 2014-07-13           2014-07-14   Death  
##  8 90e5fe          5 2014-06-18     2014-07-13 2014-07-14           2014-07-16   <NA>   
##  9 a47529          5 2014-06-13     2014-07-17 2014-07-18           2014-07-26   Death  
## 10 da8ecb          5 2014-06-20     2014-07-18 2014-07-20           2014-08-01   <NA>   
## # ℹ 59 more rows
## # ℹ 23 more variables: gender <chr>, age <dbl>, age_unit <chr>, age_years <dbl>,
## #   age_cat <fct>, age_cat5 <fct>, hospital <chr>, lon <dbl>, lat <dbl>,
## #   infector <chr>, source <chr>, wt_kg <dbl>, ht_cm <dbl>, ct_blood <dbl>,
## #   fever <chr>, chills <chr>, cough <chr>, aches <chr>, vomit <chr>, temp <dbl>,
## #   time_admission <chr>, bmi <dbl>, days_onset_hosp <dbl>
## 
##   // contacts
## 
## # A tibble: 1,865 × 4
##    from   to     location   duration
##    <chr>  <chr>  <chr>         <int>
##  1 11f8ea 893f25 Nosocomial        1
##  2 aec8ec be99c8 Nosocomial        2
##  3 133ee7 57a565 Nosocomial        6
##  4 37a6f6 fc15ef Nosocomial        4
##  5 9f6884 2eaa9a Nosocomial        5
##  6 8e104d ddddee Nosocomial        2
##  7 b799eb bc2adf Nosocomial        3
##  8 a15e13 f327be Nosocomial        8
##  9 ea3740 90e5fe Nosocomial       10
## 10 567136 8ebf6e Nosocomial        9
## # ℹ 1,855 more rows
…
